{
  "requiresCompatibilities": ["FARGATE"],
  "family": "hello",
  "taskRoleArn": "arn:aws:iam::685480772274:role/ecsTaskExecutionRole",
  "containerDefinitions": [
        {
            "name": "web",
            "image": "685480772274.dkr.ecr.ap-northeast-1.amazonaws.com/hello-world:latest",
            "cpu": 10,
            "memory": 512,
            "portMappings": [
                {
                    "containerPort": 3000,
                    "hostPort": 3000,
                    "protocol": "tcp"
                }
            ],
            "essential": true,
            "environment": [],
            "mountPoints": [],
            "volumesFrom": []
        }
    ],
  "volumes": [],
  "networkMode": "awsvpc",
  "executionRoleArn": "arn:aws:iam::685480772274:role/ecsTaskExecutionRole"
}
